{
  "name": "runner_configure_runners_monitoring",
  "default_attributes": {
    "cookbook-gitlab-runner": {
      "runners": {
        "test-runner-1": {
          "global": {
            "name": "test-runner-1",
            "executor": "shell"
          },
          "monitoring": {
            "job_queuing_durations": [
              {
                "periods": [
                  "* * * * * * *"
                ],
                "timezone": "UTC",
                "threshold": "1m30s",
                "jobs_running_for_project": "^[0-4]$"
              },
              {
                "periods": [
                  "* * * * * * sat-sun"
                ],
                "timezone": "UTC",
                "threshold": "3m",
                "jobs_running_for_project": "^[0-4]$"
              },
              {
                "periods": [
                  "* 55-59 3 * * * sat-sun",
                  "* 00-05 4 * * * sat-sun"
                ],
                "timezone": "UTC",
                "threshold": "1m30s",
                "jobs_running_for_project": "^[0-4]$"
              }
            ]
          }
        },
        "test-runner-2": {
          "global": {
            "name": "test-runner-2",
            "executor": "shell"
          },
          "monitoring": {
            "job_queuing_durations": [
              {
                "periods": [
                  "* * * * * * *"
                ],
                "timezone": "UTC",
                "threshold": "1m30s",
                "jobs_running_for_project": "^[0-4]$"
              }
            ]
          }
        }
      }
    }
  },
  "run_list": [
    "recipe[cookbook-gitlab-runner::runner_configure]"
  ]
}
