{
  "name": "runner_configure_no_machine_options",
  "default_attributes": {
    "cookbook-gitlab-runner": {
      "runners": {
        "test-runner-1": {
          "global": {
            "name": "test-runner-1",
            "executor": "docker+machine"
          },
          "docker": {
            "image": "ruby:2.3"
          },
          "machine": {
            "MachineName": "machine-%s",
            "MachineDriver": "digitalocean"
          }
        }
      }
    }
  },
  "run_list": [
    "recipe[cookbook-gitlab-runner::runner_configure]"
  ]
}